{
  "tests" : [ {
    "name" : "test.gspec",
    "startedAt" : 1573116568571,
    "endedAt" : 1573116583434,
    "failed" : false,
    "statistic" : {
      "passed" : 15,
      "errors" : 0,
      "warnings" : 0,
      "total" : 15
    },
    "testId" : "1-test.gspec",
    "duration" : 14863,
    "failed" : false
  } ]
}