{
  "tests" : [ {
    "name" : "test.gspec",
    "startedAt" : 1573500730853,
    "endedAt" : 1573500747792,
    "failed" : true,
    "statistic" : {
      "passed" : 15,
      "errors" : 1,
      "warnings" : 0,
      "total" : 16
    },
    "testId" : "1-test.gspec",
    "duration" : 16939,
    "failed" : true
  } ]
}